{
  "POST /products.json (for buy)" : {
    "transaction" : "POST /products.json (for buy)",
    "sampleCount" : 200,
    "errorCount" : 0,
    "errorPct" : 0.0,
    "meanResTime" : 693.0900000000003,
    "medianResTime" : 602.0,
    "minResTime" : 93.0,
    "maxResTime" : 2096.0,
    "pct1ResTime" : 1203.6000000000001,
    "pct2ResTime" : 1298.95,
    "pct3ResTime" : 1879.790000000002,
    "throughput" : 1.2406870925118332,
    "receivedKBytesPerSec" : 2.3047943638687105,
    "sentKBytesPerSec" : 14.30261414708966
  },
  "GET /products.json" : {
    "transaction" : "GET /products.json",
    "sampleCount" : 200,
    "errorCount" : 0,
    "errorPct" : 0.0,
    "meanResTime" : 632.2700000000003,
    "medianResTime" : 584.5,
    "minResTime" : 135.0,
    "maxResTime" : 1714.0,
    "pct1ResTime" : 984.0,
    "pct2ResTime" : 1116.8999999999996,
    "pct3ResTime" : 1490.4000000000005,
    "throughput" : 1.2308980016370943,
    "receivedKBytesPerSec" : 16.14501233398263,
    "sentKBytesPerSec" : 0.8474564454435233
  },
  "POST Register" : {
    "transaction" : "POST Register",
    "sampleCount" : 200,
    "errorCount" : 12,
    "errorPct" : 6.0,
    "meanResTime" : 1488.9950000000006,
    "medianResTime" : 1432.5,
    "minResTime" : 610.0,
    "maxResTime" : 2936.0,
    "pct1ResTime" : 2027.5000000000002,
    "pct2ResTime" : 2316.7499999999995,
    "pct3ResTime" : 2816.92,
    "throughput" : 1.2056472517270898,
    "receivedKBytesPerSec" : 1.986150786534126,
    "sentKBytesPerSec" : 1.2855449299518946
  },
  "GET OFFERS" : {
    "transaction" : "GET OFFERS",
    "sampleCount" : 200,
    "errorCount" : 0,
    "errorPct" : 0.0,
    "meanResTime" : 647.3499999999997,
    "medianResTime" : 552.5,
    "minResTime" : 32.0,
    "maxResTime" : 1639.0,
    "pct1ResTime" : 1158.7,
    "pct2ResTime" : 1339.7499999999998,
    "pct3ResTime" : 1622.6700000000003,
    "throughput" : 1.2228751016514927,
    "receivedKBytesPerSec" : 1.4893878325455978,
    "sentKBytesPerSec" : 0.8534808375471571
  },
  "POST /products.json" : {
    "transaction" : "POST /products.json",
    "sampleCount" : 200,
    "errorCount" : 0,
    "errorPct" : 0.0,
    "meanResTime" : 597.045,
    "medianResTime" : 535.0,
    "minResTime" : 148.0,
    "maxResTime" : 1494.0,
    "pct1ResTime" : 978.8000000000001,
    "pct2ResTime" : 1189.85,
    "pct3ResTime" : 1391.2900000000006,
    "throughput" : 1.2315574275228454,
    "receivedKBytesPerSec" : 2.2823260733022983,
    "sentKBytesPerSec" : 14.194000025400873
  },
  "POST /users/sign_in.json" : {
    "transaction" : "POST /users/sign_in.json",
    "sampleCount" : 200,
    "errorCount" : 1,
    "errorPct" : 0.5,
    "meanResTime" : 984.4249999999995,
    "medianResTime" : 893.5,
    "minResTime" : 179.0,
    "maxResTime" : 2931.0,
    "pct1ResTime" : 1539.4,
    "pct2ResTime" : 2171.5999999999995,
    "pct3ResTime" : 2625.0,
    "throughput" : 1.2068767839147463,
    "receivedKBytesPerSec" : 2.080984402249015,
    "sentKBytesPerSec" : 0.9675993184163362
  },
  "POST Register akun" : {
    "transaction" : "POST Register akun",
    "sampleCount" : 200,
    "errorCount" : 9,
    "errorPct" : 4.5,
    "meanResTime" : 1240.9500000000005,
    "medianResTime" : 1212.0,
    "minResTime" : 356.0,
    "maxResTime" : 2525.0,
    "pct1ResTime" : 1801.9,
    "pct2ResTime" : 1981.6499999999999,
    "pct3ResTime" : 2193.370000000001,
    "throughput" : 1.2391420180666906,
    "receivedKBytesPerSec" : 2.054936732119181,
    "sentKBytesPerSec" : 1.6143939124050508
  },
  "DELETE /products/{id}.json" : {
    "transaction" : "DELETE /products/{id}.json",
    "sampleCount" : 200,
    "errorCount" : 0,
    "errorPct" : 0.0,
    "meanResTime" : 535.3749999999999,
    "medianResTime" : 474.0,
    "minResTime" : 56.0,
    "maxResTime" : 1470.0,
    "pct1ResTime" : 941.1000000000001,
    "pct2ResTime" : 1145.9499999999996,
    "pct3ResTime" : 1447.7800000000002,
    "throughput" : 1.238627848069908,
    "receivedKBytesPerSec" : 1.2083032385473373,
    "sentKBytesPerSec" : 0.9965148108924934
  },
  "GET /categories.json" : {
    "transaction" : "GET /categories.json",
    "sampleCount" : 200,
    "errorCount" : 0,
    "errorPct" : 0.0,
    "meanResTime" : 541.2750000000001,
    "medianResTime" : 460.5,
    "minResTime" : 31.0,
    "maxResTime" : 1758.0,
    "pct1ResTime" : 1095.1000000000001,
    "pct2ResTime" : 1223.6999999999994,
    "pct3ResTime" : 1482.0,
    "throughput" : 1.231193518997316,
    "receivedKBytesPerSec" : 1.2865010403585238,
    "sentKBytesPerSec" : 0.8502569539348945
  },
  "GET /products/{id}.json " : {
    "transaction" : "GET /products/{id}.json ",
    "sampleCount" : 200,
    "errorCount" : 0,
    "errorPct" : 0.0,
    "meanResTime" : 551.7850000000005,
    "medianResTime" : 480.0,
    "minResTime" : 91.0,
    "maxResTime" : 1635.0,
    "pct1ResTime" : 890.0,
    "pct2ResTime" : 1216.9999999999998,
    "pct3ResTime" : 1551.1400000000008,
    "throughput" : 1.2341717473403597,
    "receivedKBytesPerSec" : 2.2075102146996026,
    "sentKBytesPerSec" : 0.85773731194308
  },
  "POST /users/sign_in.json Buyer" : {
    "transaction" : "POST /users/sign_in.json Buyer",
    "sampleCount" : 200,
    "errorCount" : 0,
    "errorPct" : 0.0,
    "meanResTime" : 762.295,
    "medianResTime" : 724.5,
    "minResTime" : 25.0,
    "maxResTime" : 2222.0,
    "pct1ResTime" : 1244.9,
    "pct2ResTime" : 1365.9,
    "pct3ResTime" : 1970.6200000000003,
    "throughput" : 1.2443460028495523,
    "receivedKBytesPerSec" : 2.1420675178252564,
    "sentKBytesPerSec" : 1.2333182294356269
  },
  "POST /offers.json" : {
    "transaction" : "POST /offers.json",
    "sampleCount" : 200,
    "errorCount" : 0,
    "errorPct" : 0.0,
    "meanResTime" : 1019.3100000000005,
    "medianResTime" : 1006.0,
    "minResTime" : 89.0,
    "maxResTime" : 2080.0,
    "pct1ResTime" : 1550.0,
    "pct2ResTime" : 1788.3999999999999,
    "pct3ResTime" : 2063.99,
    "throughput" : 1.2643184059473538,
    "receivedKBytesPerSec" : 3.509786170174097,
    "sentKBytesPerSec" : 14.568250821411866
  },
  "Total" : {
    "transaction" : "Total",
    "sampleCount" : 3600,
    "errorCount" : 39,
    "errorPct" : 1.0833334,
    "meanResTime" : 889.6677777777776,
    "medianResTime" : 765.0,
    "minResTime" : 24.0,
    "maxResTime" : 3837.0,
    "pct1ResTime" : 1674.5000000000005,
    "pct2ResTime" : 1955.0,
    "pct3ResTime" : 2698.6999999999935,
    "throughput" : 20.690844301396634,
    "receivedKBytesPerSec" : 45.66578336937467,
    "sentKBytesPerSec" : 91.05349984194494
  },
  "PUT /products/{id}.json" : {
    "transaction" : "PUT /products/{id}.json",
    "sampleCount" : 200,
    "errorCount" : 0,
    "errorPct" : 0.0,
    "meanResTime" : 625.0399999999998,
    "medianResTime" : 561.5,
    "minResTime" : 130.0,
    "maxResTime" : 1541.0,
    "pct1ResTime" : 1106.0,
    "pct2ResTime" : 1216.8,
    "pct3ResTime" : 1499.93,
    "throughput" : 1.2360481069923241,
    "receivedKBytesPerSec" : 2.2798388289834737,
    "sentKBytesPerSec" : 14.464714158081282
  },
  "PUT /profiles.json" : {
    "transaction" : "PUT /profiles.json",
    "sampleCount" : 400,
    "errorCount" : 17,
    "errorPct" : 4.25,
    "meanResTime" : 1803.8724999999997,
    "medianResTime" : 1733.5,
    "minResTime" : 906.0,
    "maxResTime" : 3837.0,
    "pct1ResTime" : 2350.6000000000004,
    "pct2ResTime" : 2833.1499999999996,
    "pct3ResTime" : 3413.2000000000007,
    "throughput" : 2.3483549773383743,
    "receivedKBytesPerSec" : 3.56333628039652,
    "sentKBytesPerSec" : 26.906093687621823
  },
  "GET /profiles.json " : {
    "transaction" : "GET /profiles.json ",
    "sampleCount" : 400,
    "errorCount" : 0,
    "errorPct" : 0.0,
    "meanResTime" : 806.8799999999992,
    "medianResTime" : 763.0,
    "minResTime" : 34.0,
    "maxResTime" : 2381.0,
    "pct1ResTime" : 1314.6000000000001,
    "pct2ResTime" : 1554.6,
    "pct3ResTime" : 2138.5800000000004,
    "throughput" : 2.377612401626287,
    "receivedKBytesPerSec" : 3.273959506660287,
    "sentKBytesPerSec" : 1.887665197624171
  },
  "GET /categories/{id}.json" : {
    "transaction" : "GET /categories/{id}.json",
    "sampleCount" : 200,
    "errorCount" : 0,
    "errorPct" : 0.0,
    "meanResTime" : 473.31,
    "medianResTime" : 377.0,
    "minResTime" : 24.0,
    "maxResTime" : 1364.0,
    "pct1ResTime" : 983.8000000000001,
    "pct2ResTime" : 1066.8,
    "pct3ResTime" : 1333.5000000000005,
    "throughput" : 1.2319443161169115,
    "receivedKBytesPerSec" : 0.8770384828605747,
    "sentKBytesPerSec" : 0.8531815924420216
  }
}